{
  "project_info": {
    "project_number": "450590017317",
    "firebase_url": "https://ideas-desarrollo.firebaseio.com",
    "project_id": "ideas-desarrollo",
    "storage_bucket": "ideas-desarrollo.appspot.com"
  },
  "client": [
    {
      "client_info": {
        "mobilesdk_app_id": "1:450590017317:android:3b175af1331d72168f3ccc",
        "android_client_info": {
          "package_name": "app.musisocial"
        }
      },
      "oauth_client": [
        {
          "client_id": "450590017317-1ecnjt78hkvbok83qrkj3ds4jlqbadbd.apps.googleusercontent.com",
          "client_type": 3
        }
      ],
      "api_key": [
        {
          "current_key": "AIzaSyC7QxWBTY6ooe25dMc6yMcVSIAq3fMxJLA"
        }
      ],
      "services": {
        "appinvite_service": {
          "other_platform_oauth_client": [
            {
              "client_id": "450590017317-1ecnjt78hkvbok83qrkj3ds4jlqbadbd.apps.googleusercontent.com",
              "client_type": 3
            }
          ]
        }
      }
    }
  ],
  "configuration_version": "1"
}